<svg xmlns="http://www.w3.org/2000/svg" width="25" height="25" viewBox="0 0 25 25">
  <path id="globe-americas" d="M12.5,8A12.5,12.5,0,1,0,25,20.5,12.5,12.5,0,0,0,12.5,8ZM23.373,20.775l-2.158-.54a.4.4,0,0,1-.239-.168l-.906-1.359a.406.406,0,0,1,0-.448l.987-1.481a.394.394,0,0,1,.154-.136l1.208-.6a10.8,10.8,0,0,1,.968,4.462C23.387,20.593,23.376,20.682,23.373,20.775ZM1.613,20.5a10.842,10.842,0,0,1,.156-1.761c.361.534.732,1.082,1,1.48A6.7,6.7,0,0,0,3.85,21.446a8.011,8.011,0,0,0,1.772,1.218c.7.351,1.717.9,2.433,1.3a.807.807,0,0,1,.413.7v1.614a2.4,2.4,0,0,0,.709,1.711,3.053,3.053,0,0,1,.9,2.013v1.1A10.9,10.9,0,0,1,1.613,20.5ZM11.69,31.346l0-1.232a4.514,4.514,0,0,0-1.369-3.261.815.815,0,0,1-.236-.57V24.67a2.415,2.415,0,0,0-1.246-2.115c-.731-.4-1.774-.971-2.487-1.331a6.537,6.537,0,0,1-1.459-1.011,5.059,5.059,0,0,1-.784-.9c-.487-.715-1.287-1.9-1.784-2.639a10.915,10.915,0,0,1,8.042-6.847l2.61,2.61-.758.758a1.211,1.211,0,0,0-.047,1.66l-.288,0a1.206,1.206,0,0,0-.843.343l-.5.486a1.2,1.2,0,0,0-.239,1.409l.2.4a1.614,1.614,0,0,0-1.11-.033l-1.572.524a1.409,1.409,0,0,0-.184,2.6l.559.28a4.249,4.249,0,0,0,1.745.444,5.47,5.47,0,0,1,.438.549,3.018,3.018,0,0,0,.958.981l.17.085h3.555a.808.808,0,0,1,.57.236l.69.69a.739.739,0,0,1,.214.518,1.547,1.547,0,0,1-.457,1.092l-.572.571a2.013,2.013,0,0,0-.517.9l-.056.222a5.336,5.336,0,0,1-.161.554l-1.35,3.638c-.3.026-.609.046-.92.046-.274,0-.542-.022-.811-.042Zm3.57-.327,1.021-2.753a6.571,6.571,0,0,0,.214-.724l.052-.2c.017-.066.053-.129.206-.281l.463-.462a3.169,3.169,0,0,0,.929-2.233,2.362,2.362,0,0,0-.686-1.658l-.69-.69a2.436,2.436,0,0,0-1.711-.709H11.986c-.1-.112-.219-.282-.31-.406-.414-.565-.884-1.206-1.6-1.206a2.622,2.622,0,0,1-1.167-.276L8.8,19.359l1.1-.368.468.406a1.212,1.212,0,0,0,.792.3h.285a1.21,1.21,0,0,0,1.082-1.751l-.654-1.308.17-.167h.29a1.2,1.2,0,0,0,.855-.354l.4-.4a1.211,1.211,0,0,0,.047-1.66l.474-.474a1.611,1.611,0,0,0,0-2.28L12.435,9.617c.022,0,.044,0,.066,0a10.88,10.88,0,0,1,9.149,5.008l-1.158.579a2.015,2.015,0,0,0-.775.684l-.987,1.481a2.009,2.009,0,0,0,0,2.237l.906,1.359a2.015,2.015,0,0,0,1.189.837l2.388.6a10.908,10.908,0,0,1-7.953,8.623Z" transform="translate(0 -8)" fill="#3d3d3d"/>
</svg>
